
            o8o
            `"'
oo.ooooo.  oooo  ooo. .oo.    .ooooo.   .ooooo.   .ooooo.  ooo. .oo.    .ooooo.
 888' `88b `888  `888P"Y88b  d88' `88b d88' `"Y8 d88' `88b `888P"Y88b  d88' `88b
 888   888  888   888   888  888ooo888 888       888   888  888   888  888ooo888
 888   888  888   888   888  888    .o 888   .o8 888   888  888   888  888    .o
 888bod8P' o888o o888o o888o `Y8bod8P' `Y8bod8P' `Y8bod8P' o888o o888o `Y8bod8P'
 888
o888o

                                                                                                       .o8                .    o8o
                                                                                                      "888              .o8    `"'
oooo d8b  .ooooo.   .ooooo.   .ooooo.  ooo. .oo.  .oo.   ooo. .oo.  .oo.    .ooooo.  ooo. .oo.    .oooo888   .oooo.   .o888oo oooo   .ooooo.  ooo. .oo.    .oooo.o
`888""8P d88' `88b d88' `"Y8 d88' `88b `888P"Y88bP"Y88b  `888P"Y88bP"Y88b  d88' `88b `888P"Y88b  d88' `888  `P  )88b    888   `888  d88' `88b `888P"Y88b  d88(  "8
 888     888ooo888 888       888   888  888   888   888   888   888   888  888ooo888  888   888  888   888   .oP"888    888    888  888   888  888   888  `"Y88b.
 888     888    .o 888   .o8 888   888  888   888   888   888   888   888  888    .o  888   888  888   888  d8(  888    888 .  888  888   888  888   888  o.  )88b
d888b    `Y8bod8P' `Y8bod8P' `Y8bod8P' o888o o888o o888o o888o o888o o888o `Y8bod8P' o888o o888o `Y8bod88P" `Y888""8o   "888" o888o `Y8bod8P' o888o o888o 8""888P'

:: Pinecone Recommendations [${pinecone.service-name}] :: Running Spring Boot ${spring-boot.version} :: Port #${server.port} ::

